<?xml version="1.0" encoding="utf-8"?>
<!-- Generator: Adobe Illustrator 16.0.0, SVG Export Plug-In . SVG Version: 6.00 Build 0)  -->
<!DOCTYPE svg PUBLIC "-//W3C//DTD SVG 1.1//EN" "http://www.w3.org/Graphics/SVG/1.1/DTD/svg11.dtd">
<svg version="1.1" id="Layer_1" xmlns="http://www.w3.org/2000/svg" xmlns:xlink="http://www.w3.org/1999/xlink" x="0px" y="0px"
	 width="1590px" height="1034.646px" viewBox="0 0 1590 1034.646" enable-background="new 0 0 1590 1034.646" xml:space="preserve">
<rect y="-3" fill="#4B6EB1" width="1590" height="1037.218"/>
<g opacity="0.15">
	<path fill="#FFFFFF" d="M403.897,304.138c1.607-1.629,2.406-4.273,4.236-5.756c1.868-1.512,2.951-0.701,5.014-0.996
		c3.453-0.493,5.295-5.018,8.956-3.211c0.57,2.463-1.872,4.285-2.768,6.412c-1.213,2.881-1.655,2.049-3.992,3.482
		c-2.073,1.271-2.244,3.131-5.252,2.143c-2.056-0.675-4.681-2.378-6.443-3.324"/>
	<path fill="#FFFFFF" d="M476.813,285.72c-2.568-4.859,4.087-3.074,5.667-2.908c3.361,0.355,5.257-3.02,8.541-2.467
		c-0.084-1.256-0.179-2.805-0.5-3.898c3.174-0.215,1.867,4.309,3.617,5.98c1.643-1.295,3.106-2.726,5.342-2.715
		c3.041,0.018,2.619,1.678,4.75,3.25c1.799,1.328,4.888,0.009,6.265,1.076c1.819,1.412,0.225,3.359-1.332,4.033
		c-7.146,3.1-20.44-7.328-20.733,4.934c-4.103,1.324-10.185,0.693-13.851-1.543c3.188-1.031,5.899-1.293,9.185-1.459
		c0.404-4.311-9.482-3.123-6.95-6.949"/>
	<path fill="#FFFFFF" d="M545.813,63.388c6.599-3.351,3.486,4.332,4.051,7.615c2.109,0.178,3.711-0.805,5.616,0.385
		c2.057,1.285,1.813,3.348,2.901,5.074c0.487,0.775,1.727,1.51,2.099,2.186c0.33,0.602,0.396,2.307,0.659,2.739
		c1.432,2.345,2.916,0.824,4.598,2.402c2.098,1.967,0.523,3.871-1.257,4.266c-2.885,0.642-5.376-2.051-7.667-3.26
		c-2.455-1.294-5.135-1.318-7.59-2.48c-1.87-0.885-2.91-2.893-5.026-2.875c-0.349,1.787,0.599,3.654,2.224,4.34
		c-0.011,0.068-0.009,0.844,0.008,0.893c-2.357,0.094-4.418-0.802-6.581-0.584c0.452,3.174,2.937,3.682,2.03,7.049
		c-0.561,2.083-3.879,4.467-3.414,6.602c0.301,1.384,4.051,3.723,5.082,4.967c1.116,1.348,4.832,4.42,4.885,5.967
		c-2.375,0.465-4.115,3.233-6.117,4.666c4.064,2.307,8.077,8.361,7.5,13.4c-0.416,3.623-2.59,5.205-6.018,5.633
		c-4.824,0.604-5.462-2.449-8.05-5.975c-0.687-0.938-2.714-2.287-3.022-3.252c-0.913-2.848,0.703-2.33,2.432-3.836
		c1.228-1.072,2.701-0.805,1.334-2.678c-0.793-1.086-2.84-1.093-4.009-0.834c-3.007,0.666-3.87,5.166-7.081,2.609
		c-2.703-2.155-1.494-6.291-0.17-8.693c1.534-2.783,4.613-5.389,4.584-8.584c-0.028-2.998-1.793-5.246-1.616-8.689
		c4.452,0.324,3.819-3.32,2.627-6.076c-1.222-2.82-1.45-4.24-1.328-7.308c0.222-5.471-3.819-9.823-3.299-15.616
		c7.739-0.611,3.911,7.918,9.893,9.572c0.034-1.959,3.68-3.174,4.99-4.974c1.327-1.821,2.123-4.168,5.067-3.649"/>
	<path fill="#FFFFFF" d="M613.813,46.72c0,3.395-0.959,7.334,1.408,9.926c2.781,3.051,3.283-0.178,6.2,0.533
		c0.901,2.984-0.57,10.205,2.651,11.506c0.555-1.307,1.173-2.561,1.462-3.92c2.165,1.09,0.966,6.861,1.938,9.018
		c1.932-3.422,4.949-6.75,6.656-10.047c-2.555-2.409-5.229-3.172-7.99-5.024c-2.504-1.675-2.197-2.506-2.377-5.6
		c-1.454-0.462-4.455,0.025-5.615-0.758c-1.363-0.919-2.697-4.95-2.718-6.583c-1.442-0.278-2.715,0.492-3.616,1.617"/>
	<path fill="#FFFFFF" d="M619.479,93.388c5.284,0.809,8.213,4.598,11.092,8.324c3.759,4.867,5.123,2.738,9.91,1.418
		c4.097-1.13,12.373,0.358,11.281,5.926c-0.979,4.99-4.67,9.707-4.994,14.947c-4.484,0.346-7.54,1.635-8.703-3.689
		c-0.291-1.33-0.633-3.551-0.275-4.926c0.437-1.686,2.016-2.178,1.64-4.283c-4.925-0.91-5.246,4.393-8.951,5.623
		c-6.216,2.068-7.716-5.719-11.334-7.008c-1.509-0.537-4.73,0.885-5.931-0.309c-1.162-1.156-0.332-5.131-0.645-6.691
		c-0.502-2.516-2.205-4.035,1.244-4c2.094,0.021,3.402,1.982,5.283,2.559c0.17-3.166-0.551-6.148-0.567-9.18
		c0.921,0.162,2.001,0.799,2.618,1.621"/>
	<path fill="#FFFFFF" d="M646.813,173.058c3.048,1.715,8.349,4.508,11.625,4.607c-1.33-4.383-7.42-3.145-6.574-9.557
		c1.26-0.064,5.275-0.727,6.298,0c1.372,0.971,1.061,4.02,1.562,5.355c0.438,1.17,2.709,5.332,4.438,4.623
		c1.293-0.529,1.237-4.742,1.702-5.979c7.255,1.221,22.61,9.883,10.947,16.014c-1.549,0.814-5.082,1.641-5.738,3.195
		c-1.062,2.52,1.391,2.833,3.66,3.072c5.018,0.533,9.875-0.912,15.029-0.613c0.994,3.205-5.754,4.463-6.697,7.281
		c-1.098,3.285,5.215,6.23,7.747,8.268c2.397,1.928,5.73,3.83,7.001,6.699c1.461,3.295,1.145,7.473,2.293,10.975
		c-1.338,0.835-4.724,1.509-6.293,1.39c-3.865-0.285-3.189-4.592-6.34-4.967c-0.783,2.104-0.312,5.117-0.045,7.25
		c-3.4,0.172-7.295,0.479-10.689,0.053c-4.604-0.58-6.409-3.775-6.209-8.283c2.738-0.326,14.588-3.248,13.898-6.678
		c-3.709-1.514-4.644-4.787-8.875-3.455c-4.087,1.287-6.068,3.951-7.406,7.764c-0.498,1.422,0.05,2.379-1.326,2.992
		c-1.913,0.851-4.395-1.695-5.268-2.994c-1.95-2.9-1.932-7.705-0.424-10.67c1.861-3.662,4.263-3.271,7.008-5.021
		c2.69-1.715,3.1-3.979,0.01-6.07c-2.994-2.027-6.141-1.15-9.408-0.678c-1.195,0.172-3.012,0.936-4.334,0.432
		c-2.391-0.91-1.348-1.748-2.258-3.674c-0.189-0.398-0.031-1.485-0.033-1.932c-2.762-1.135-5.529,0.289-7.967-1.47
		c-1.412-1.017-2.851-3.743-3.604-5.338c-1.733-3.668-1.492-6.452,1.27-9.26c3.556-3.613,3.705-2.115,7.314,0.336
		c2.236,1.516,8.224,2.396,10.02,1"/>
	<path fill="#FFFFFF" d="M696.147,240.729c4.967,0.654,7.115,5.359,11.274,7.29c0.134-8.633,6.896,0.566,10.06,0.708
		c2.577,0.117,3.039-2.68,5.331,0.334c1.33,1.75,0.743,6.209,3.951,5.283c0.512-2.182-1.51-3.189-1.226-5.24
		c1.605,0.637,3.737,2.285,5.009,3.607c2.775,2.889,2.297,2.476,5.926,3.35c2.535,0.611,8.837,5.943,9.289,8.943
		c-2.084,1.418-6.127,1.789-8.221,0.092c-0.572,6.268,4.234,6.93,8.68,9.891c1.305,0.871,4.483,2.542,5.276,3.65
		c1.169,1.633,0.591,4.342,0.707,6.381c2.784-0.645,3.062-3.375,5.276-4.641c1.258-0.719,6.231-1.846,7.676-1.25
		c3.25,1.343,7.412,9.924,8.623,12.941c-2.971,0.229-2.652,0.67-2.631,3.318c0.025,3.35,0.611,2.383-1.668,4.342
		c-2.779,2.392-4.615,5.071-8.614,4.717c-0.43,4.225,4.738,0.832,5.681,0.664c3.822-0.674,4.948,2.449,2.527,4.869
		c-2.138,2.135-5.177,1.133-0.577,3.416c2.576,1.279,5.432,2.752,7.7,4.324c-2.861,3.006-7.903,4.791-10.107-0.599
		c-3.595-0.62-5.158,2.315-8.259,2.958c-3.881,0.805-4.647-1.861-7.649-3.035c-1.665-0.652-8.538-1.066-8.299,1.619
		c0.213,2.414,5.332,3.465,5.547,7.018c-4.245,0.932-1.713,4.29-3.34,6.975c-2.588,4.271-6.512,1.584-9.294,0.074
		c-3.542-1.92-6.01-0.336-9.739-0.334c-3.125,0-5.628-2.637-6.541-5.607c0.754,0.178,3.744,0.196,2.912-1.41
		c-0.676-1.301-3.219-0.254-4.279-1.058c-1.6-1.213-0.025-2.465-0.969-3.598c-0.892-1.066-2.889-0.664-4.367-0.66
		c-2.803,0.01-7.46,0.428-6.34-4c0.937-3.703,5.475-1.83,7.365-4.326c1.398-1.844,0.432-6.346,0.717-8.674
		c0.401-3.285,1.439-7.002,2.684-10.007c2.428-5.856,3.85-10.395,4.693-16.633c4.495,1.602,7.421,3.83,12.503,3.598
		c-0.423-2.36-3.056-4.047-4.621-5.883c-1.621-1.9-2.209-4.041-3.559-6.148c-2.139-3.342-7.414-6.87-11.725-6.215
		c0.096,1.42-0.134,2.961-0.784,4.256c-2.401,0.633-5.118,0.369-7.647,0.365c2.889-1.939,2.619-6.518,4.031-9.689
		c-4.92-1.295-8.843-4.572-12.656-7.91c-1.41-1.232-3.122-2.303-3-4.406c0.08-1.404,2.522-4.357,4.005-4.326"/>
	<path fill="#FFFFFF" d="M701.147,278.729c3.24,0,8.592-1.529,10.765,1.25c1.362,1.742,2.5,8.156,0.659,9.83
		c-4.666,4.241-12.981-6.656-17.368-8.139c-0.11-0.496-0.104-1.05-0.006-1.55c1.239-0.587,2.916-0.784,3.95-1.06"/>
	<path fill="#FFFFFF" d="M784.147,250.062c2.938,0,6.025-0.238,8.926-0.074c3.541,0.2,3.737,1.505,5.714,4.691
		c-4.108,0.208-14.741,0.512-16.307-3.951"/>
	<path fill="#FFFFFF" d="M643.48,165.396c0.016-4.395,1.56-6.139,5.942-3.941c0.409,2.969-5.332,9.012-8.025,10.191
		c-2.865,1.256-4.985-0.09-3.158-2.918c1.115-1.727,3.678-2.539,5.241-4"/>
	<path fill="#FFFFFF" d="M801.813,313.736c3.195,0.449,5.18-2.606,8-2.34c2.613,0.248,4.846,3.943,6.933,5.314
		c2.964-6.861,9.414-2.02,13.123,0.676c-1.541,1.984-2.909,3.609-4.714,5.082c-1.811,1.475-4.01,2.695-1.691,5.285
		c2.98,3.332,9.123,0.006,7.958,6.926c-3.09,1.168-6.13-0.449-9.275-0.609c-3.637-0.186-7.32,0.131-10.942-0.05
		c-0.521-1.456-0.415-3.026-0.441-4.557c-1.479-0.394-3.546-0.709-4.599-1.719c-2.684-2.572,0.441-2.484-0.061-5.033
		c-0.089-0.465-3.194-3.193-3.707-3.89c-1.396-1.895-2.494-2.827-2.25-5.416"/>
	<path fill="#FFFFFF" d="M812.48,517.407c4.712-0.016,9.848-1.395,13.584-3.342c1.146-0.598,0.978-1.227,2.391-1.658
		c1.401-0.426,3.036,0.201,4.358,0.352c2.572,0.292,4.963,1.189,7.625,1.033c1.396,4.242,1.715,8.123,5.045,11.283
		c2.133,2.023,7.637,3.439,6.006,6.34c-0.375,0.664-2.24,1.202-2.934,1.994c-0.695,0.793-1.531,2.482-2.002,3.4
		c-1.346,2.611-2.512,5.18-3.738,7.855c-2.896,6.32-9.357,5.443-15.677,3.992c-1.777-0.408-4.422-0.441-5.989-1.24
		c-1.313-0.672-1.647-1.949-2.743-2.658c-2.422-1.571-1.217-1.268-3.666,0.715c-2.284,1.848-1.636,2.581-3.666,0.266
		c-1.283-1.461-2.579-5.828-2.834-7.754c-0.449-3.387,1.822-3.934,4.223-6.486c-3.188-1.595-7.235-5.412-6.314-9.424
		c0.623-2.723,4.25-4.213,6.666-4.668"/>
	<path fill="#FFFFFF" d="M804.147,484.407c-2.092,0-4.203-0.031-6.282,0.028c-0.261,4.435,2.362,8.405,3.332,12.587
		c2.856,0.271,4.138-5.785,5.358-7.93c1.104-1.94,3.113-3.09,3.981-4.958c2.413-0.272,3.79,1.252,6.233-0.128
		c-0.503-2.39-3.253-7.33-4.882-9.25c-0.148,5.1-7.084,10.299-11.074,12.65"/>
	<path fill="#FFFFFF" d="M883.48,339.075c-0.531,3.242-1.576,6.836,0.807,9.334c2.064,2.164,5.789,4.152,8.242,5.991
		c5.176,3.875,12.277,3.496,17.201-0.965c1.258,4.281,8.912,12.804,7.09,17.638c-0.877,2.327-6.219,3.658-8.432,5.002
		c-2.953,1.795-5.318,4.109-8.502,5.525c-2.406,1.072-5.865,2.373-8.406,2.814c-2.83,0.49-6.395-1.037-8.926-0.363
		c-2.766,0.734-3.602,4.532-6.076,5.688c-2.588,1.209-6.785,0.078-9.672,0.318c-6.879,0.574-14.426,2.436-20.67,5.684
		c-3.223,1.678-6.178,3.533-9.566,4.918c-3.25,1.326-7.121,1.955-10.107,3.822c-11.368,7.107-13.684,29.551-30.592,27.268
		c-9.598-1.296-45.629-13.406-44.775,4.609c-3.37,0.994-4.859,0.609-7.949-0.553c-3.621-1.361-5.695-0.162-6.742,3.602
		c-1.006,3.627,1.589,3.973,3.316,6.65c2.061,3.197,2.683,5.949,1.741,9.026c-1.008,3.289-1.995,4.656-4.982,6.341
		c-3.108,1.754-3.632,2.365-3.667,6.242c-0.037,3.934,0.373,6.619,2.084,10.064c1.152,2.319,2.263,4.23,1.865,6.959
		c-5.32,0.768-12.969-6.084-16.697-9.533c-3.217-2.977-2.197-4.449-3.252-8.082c-1.014-3.492-5.168-4.475-7.242-7.41
		c-1.69-2.393-1.361-6.289-0.758-9.166c0.627-2.99,4.067-4.594,4.331-7.092c0.316-2.994-3.121-6.471-3.331-9.742
		c-0.225-3.506,0.953-7.551,4.658-8.605c3.26-0.93,6.224,2.121,8.936,1.754c2.581-0.35,2.035-4.129,4.724-5.088
		c2.31-0.826,7.308,0.916,9.61,1.358c1.418,0.273,3.682,1.162,5.071,1.009c2.402-0.268,1.277-0.74,2.912-1.783
		c6.356-4.062,8.07-12.376,12.505-18.486c1.569-2.158,2.596-4.402,5.251-5.082c3.92-1.005,4.261,0.778,6.407-3.162
		c2.338-4.285,6.171-6.834,10.25-9.578c3.996-2.691,7.156-6.484,10.678-9.594c2.257-1.994,4.893-3.648,7.926-4.406
		c4.986-1.242,7.934-2.765,11.071-7.693c4.901-7.697,11.66-12.521,20.61-14.982c5.486-1.508,11.641-1.541,17.488-1.25
		c3.297,0.164,6.692,1.457,9.902,1.332c6.883-0.27,9.494-8.574,15.326-10.007c5.961-1.463,9.271,0.937,9.674,6.675"/>
	<path fill="#FFFFFF" d="M469.147,533.716c-3.625-0.02-5.124-0.451-7.658-3.063c-2.704-2.792-3.141-3.366-6.418-0.518
		c-4.514,3.917-9.391,5.301-10.641,11.864c-1.879,0.085-4.435,0.287-5.949-0.941c-1.802-1.459-1.508-3.592-2.059-5.949
		c-3.99-0.241-5.811,0.262-8.336-2.727c-1.812-2.146-3.73-4.668-5.949-6.414c-5.455-4.299-8.69,1.685-12.592,5.057
		c-1.311-3.65-0.871-5.287-4.732-5.641c-2.99-0.275-4.952,0.221-5.333,3.332c-0.275,2.248,0.866,6.229,1.739,8.258
		c1.018,2.361,3.98,3.463,4.86,5.734c1.375,3.549-0.946,5.08-2.608,7.34c-2.483,3.381-0.029,3.475,3.009,5.336
		c5.784,3.543,6.055,9.637,8.739,15.598c0.96,2.131,2.621,4.223,3.203,6.357c-0.359-0.666-0.209-1.62-0.226-2.574
		c3.799-0.812,3.797-0.502,7.283,1.211c2.628,1.292,4.889,1.041,7.675,0.175c1.537-0.481,1.303-1.478,3.324-1.432
		c1.47,0.03,2.625,1.085,4.001,1.571c2.735,0.971,5.749,0.845,8.616,0.051c0.543-3.02-2.917-7.486-4.517-9.699
		c-1.497-2.072-7.226-5.467-6.449-8.258c0.971-3.492,6.233-0.231,7.94-3.668c1.958-3.938-1.471-7.012-2.557-10.273
		c1.396,0.129,4.651,1.922,5.955,1.297c2.148-1.025,0.406-5.08,0.728-7.304c3.231-0.175,2.677,2.452,4.534,3.362
		c2.512,1.232,3.707-1.502,6.156-2.082c3.996-0.944,10.981,4.646,10.31-2.623c1.097,0.21,2.309,0.955,3.208,1.605
		c0.664-1.959-0.264-5.912,3.025-5.263c0.089,1.804-0.577,4.554,0.984,5.581c0.713-1.646,2.174-6.28,3.65-7.324
		c1.357-0.956,5.502-0.414,7.033,0.072c0.363,1.772,0.496,4.08,2.023,4.959c1.956,1.125,7.783-0.117,9.309-1.423
		c-0.564-4.914-6.885-9.231-10.526-12.991c-4.456-4.6-10.481-7.657-14.999-12.084c-4.088-4.007-7.068-7.848-12.092-10.591
		c-1.73-0.946-5.256-2.843-7.333-1.942c-2.665,1.154-2.946,6.184-2.667,8.691c0.306,2.748,2.136,9.486,5.658,10.033
		c3.856,0.598,6.947-4.971,11.292-4.649c1.161,4.87-7.412,5.181-7.616,9.948c-0.189,4.398,4.278,9.305,6.333,13"/>
	<path fill="#FFFFFF" d="M891.146,600.388c-1.117,1.426-2.521,3.197-2.498,5.002c0.035,2.984,1.613,2.322,2.51,4.373
		c2.117,4.846-1.09,4.615-2.4,9.625c-1.105,4.225,0.643,8.279,3.779,9.887c2.127,1.093,1.602-1.629,4.133,1.127
		c1.176,1.277,0.556,3.828,2.588,5.42c2.426-1.51,3.158-4.408,5.389-5.945c1.064-0.734,2.872,0.745,3.924-0.455
		c0.785-0.895,0.078-4.809,0.236-5.955c2.529-0.129,7.338-0.902,8.875,0.912c1.678,1.979-0.801,6.152-0.559,8.01
		c0.643,4.946,5.324,8.747,5.961,14.426c-0.332,0.154-1.309,0.43-1.398,0.461c1.871,0.182,3.609-0.795,4.883-2.236
		c0.289,2.451,1.039,4.91,2.164,7.273c0.814-0.166,2.02,0.31,2.838,0.152c-1.189,6.113,6.047,6.461,5.652-0.389
		c7.861,3.023,7.488-2.006,14.422-4.574c3.018-1.119,4.924-0.209,6.916-3.614c1.289-2.204,2.26-6.788,3.035-9.397
		c-2.264-0.952-4.912-0.635-7.363-0.536c0.088,2.896-1.062,3.952-3.586,3.935c-3.906-0.027-1.796-1.955-3.977-4.035
		c-0.268-0.256-4.301-2.471-5.012-2.477c-3.492-0.033-3.49,3.892-5.984,4.047c-5.336,0.332-2.023-8.62-1.391-11.01
		c0.75-2.832,1.533-4.117,0.424-6.637c-0.836-1.9-4.418-4.159-5.686-6.266c-2.174-3.609-4.141-7.715-6.486-11.1
		c-2.273-3.279-0.77-2.758-4.889-3.523c-1.367-0.253-5.234-0.531-6.498,0.002c-3.766,1.588-2.85,6.369-5.99,8.508
		c-3.404,2.314-7.754,0.703-10.639-1.387c-1.301-0.942-2.438-1.994-3.373-3.123"/>
	<path fill="#FFFFFF" d="M1143.48,497.055c-1.889,1.279-3.807,2.019-5.75,2.917c-0.867,0.402-1.578,0.768-2.309,1.324
		c-1.822,1.389-0.863,1.395-1.941,2.759c-0.988,1.248-0.01,1.304-2,2.007c-1.172,0.414-2.779-0.276-4-0.007
		c-3.328,0.735-2.594,2.063-2.082,4.757c0.293,1.533,1.035,0.486,0.488,2.575c-0.314,1.194-1.404,2.103-2.084,2.657
		c-1.904,1.561-4.104,1.631-6.268,2.334c-1.088,0.354-4.352,1.491-4.652,2.743c-0.535,2.218,2.818,3.642,3.221,5.55
		c-3.58-0.818-4.357,3.301-1.623,4.384c1.684,0.667,2.529-0.216,4.09,0.935c1.328,0.981,1.287,2.287,2.91,2.73
		c3.529,0.963,13.059-9.501,11.615-0.057c-2.275,0.254-9.646,6.49-9.232,8.674c3.562,0.067,5.316,0.826,8.373-0.549
		c3.123-1.404,4.311-1.822,7.325-0.094c1.472,0.846,5.927,2.459,7.017,3.596c0.789,0.822,2.453,6.547,2.186,7.713
		c-1.838,0.035-3.504,0.152-5.234,0.436c-0.375,7.154,1.602,7.365,8.561,6.891c0.611-0.816,3.498-4.531,4.373-4.967
		c2.318-1.154,4.301,0.949,6.082-1.976c-0.783-0.597-1.291-1.584-1.947-2.269c6.168-2.592-2.537-5.994-3.326-9.754
		c3.098-0.261,7.127,1.704,6.158-3.593c-2.559,0.218-9.686-2.104-8.566-5.667c2.377-0.12,7.088,0.779,8.939-0.727
		c2.164-1.76,0.521-6.584-2.889-5.99c3.5,0.43,2.643-10.344,2.516-12.957c-2.09,0.346-9.055,6.322-9.25,1.674
		c5.102,0.488,6.127-6.076,5.908-9.672c-1.803,0.82-2.848,3.023-4.941,4.038c-2.574,1.243-4.449,0.43-7.268,0.616
		c-0.451,1.086-0.959,2.146-1.457,3.185c-1.297-0.92-3.037-1.817-4.6-2.228c-1.658-0.434-4.193,0.93-5.352,0.35
		c-3.166-1.586,1.432-6.541,3.359-7.682c2.123-1.256,3.291-1.318,4.574-3.657c1.566-2.856,0.443-2.378,4-3.261
		c2.85-0.709,8.742-1.973,8.691-5.689c-3.49,0.213-2.844-2.008-3-4.666c-2.943-0.569-8.764,2.732-11.281,4.301
		c-3.096,1.926-2.201,4.411,0.332,7.315"/>
	<path fill="#FFFFFF" d="M1042.48,736.388c-6.186,0.611-9.213-7.352-15.633-4.27c-0.896,0.43-2.125,2.098-3.02,2.285
		c-1.998,0.42-2.465-1.154-4.006-1.355c-3.637-0.477-3.67,2.145-5.998,4.387c-0.697-0.678-1.314-3.227-2.271-3.479
		c-1.934-0.509-1.443,2.082-3.074,2.797c-2.336,1.027-5.945-1.872-7.941-2.322c0.096,0.898-0.447,1.686-0.441,2.572
		c-2.008,0.309-3.432-0.402-5.232-0.564c-0.088,1.742-0.59,4.154,0.832,5.299c-0.674-0.193-1.504,0.133-2.158,0.033
		c-1.309,2.424,1.35,4.205,1.609,6.617c0.236,2.192-0.398,4.648-0.283,6.949c2.303,0.646,3.57-2.173,4.957-3.617
		c2.102-2.188,2.486-2.139,5.66-2.332c5.129-0.312,9.986-1.236,15.283-0.949c-0.066,2.398,1.102,5.545,3.658,5.914
		c0.186-6.064,8.48-3.472,12.723-5.225c2.678-1.105,2.492-2.004,3.076-4.814c0.496-2.391,1.832-4.379,2.26-6.594"/>
	<path fill="#FFFFFF" d="M1073.396,723.638c0-4.062,0.4-5.018,3.256-7.764c1.965-1.889,4.623-5.781,7.244-6.68
		c2.562-0.879,8.283,0.525,9.572,3.125c1.049,2.113-2.498,4.963-2.366,7.525c-1.216,0.539-2.147,1.539-2.763,2.736
		c-0.5,0.977-0.309,3.316-1,4c-1.34,1.32-2.748-0.494-3.693,1.613c-0.697,1.557,0.52,3.16-0.797,4.66
		c-1.564-0.463-3.51-3.301-3.203-4.73c0.227-1.059,1.887-2.166,2.956-2.529c0.097-1.273-0.522-2.135-0.22-3.275
		c0.186-0.691,1.359-1.357,1.48-2.389c-2.123-0.359-4.109-0.531-5.959,0.463c-1.568,0.844-2.816,2.492-4.508,3.494"/>
	<path fill="#FFFFFF" d="M1328.246,642.233c-1.42-3.736,2.252-7.347,3.875-10.847c1.793-3.87,5.133-7.444,4.986-11.013
		c-0.119-2.908-2.109-7.084-4.361-9.152c-8.076-7.424-11.982,3.299-17.002,8.763c-2.748,2.987-4.314,6.954-8.148,8.486
		c-3.789,1.514-8.436-0.283-12.975-0.112c-9.256,0.354-16.643,3.521-24.623,7.378c-7.041,3.403-14.443,4.283-21.824,6.122
		c-3.836,0.955-8.395,2.537-12.934,3.766c-0.031-0.073-0.059-0.168-0.094-0.236c-0.648-1.287-5.264-0.312-11.502,1.969l-0.023,0.002
		c0.004,0,0.01,0,0.016,0c-4.412,1.613-9.633,3.875-14.842,6.457l3.352-2.428c-1.335,0.34-3.814,1.941-6.908,4.238
		c-10.59,5.555-20.33,12.111-22.092,16.762l11.512-8.336c-9.211,7.625-19.002,16.158-22.025,17.835
		c-4.275,2.368-9.307,3.146-12.502,7.114c-1.607,1.996-2.049,4.434-2.973,6.488c-1.43,3.175-2.678,4.553-5,7.277
		c-3.576,4.193-6.959,10.059-9.098,15.045c-3.762,0.468-7.779-0.543-11.328-0.035c-4.303,0.615-4.695,3.008-5.586,7.611
		c-0.883,4.562-1.414,7.871-3.863,11.988c-3.539,5.949-1.881,5.346-1.514,11.498c0.303,5.092-3.02,5.623-5.633,9.65
		c-1.885,2.904-2.148,7.141-4.967,9.859c-4.109,3.967-19.252,0.949-18.1,11.428c-5.758,0.318-23.32-1.07-22.951,7.102
		c0.24,5.254,4.51,5.07,8.027,5.975c4.936,1.27,4.426,3.502,8.422,6.625c-9.053,12.666,5.662,10.539,14.076,12.875
		c9.354,2.596,5.502,28.814,5.502,36.363c0,10.688,1.156,24.312-2.502,34.568c-1.607,4.504-6.387,8.186-8.373,13.044
		c-0.783,1.911-2.479,6.233-2.641,8.06c-0.324,3.674,0.016,1.825,2.514,5.43c3.252,4.693,4.889,11.754,7.502,17.062
		c4.248,8.633,8.311,21.723,19.502,19.459c8.699-1.758,15.213-11.26,21.471-17.598c6.533-6.612,14.584-10.342,19.891-17.863
		c7.434-10.539,13.975-21.396,20.137-32.902c4.277-7.988,20.572-21.205,25.5-28.623c1.697-2.555,4.754-4.027,8.129-5.197
		c2.197,0.166,4.629-0.514,7.305-2.31c3.846-1.312,7.127-2.962,8.236-6.157c4.018-2.555,8.105-3.6,12.193,0.746
		c4.23,4.5,11.609,13.5,19.035,11.814c-0.012-6.746-4.057-13.781-0.408-20.426c2.275-4.141,5.76-4.475,2.35-9.4
		c-1.986-2.865-5.365-3.609-8.391-4.611c-4.658-1.541-4.662-1.283-4.475-6.988c0.178-5.387,1.082-4.76,4.609-8.377
		c4.045-4.148,2.992-15.094,11.314-13.697c0.299-5.809,0.236-7.561,4.701-11.301c5.035-4.219,7.273-5.549,13.301-3.162
		c3.594-5.082,3.137-12.561,4.576-18.461c1.855-7.609,12.385-9.852,14.646-16.864c1.047-3.245-2.365-6.633-2.648-10.138
		c-0.322-3.992,1.463-7.641,1.998-11.5c0.627-4.508-0.15-7.922,2.639-11.375c2.66-3.293,7.136-4.576,9.738-8.223
		c0.654-0.916,0.438-2.475,1.227-3.402c0.926-1.088,3.322-2.035,3.922-2.914c2.121-3.104,1.619-0.436-0.547-4.598
		c-2.172-4.174-2.666-7.75-1.1-12.5c1.195-3.621,4.07-9.258,7.125-11.609c3.688-2.838,10.652-2.164,8.01-9.402
		C1334.559,646.397,1329.506,645.546,1328.246,642.233z"/>
	<path fill="#FFFFFF" d="M162.122,412.858c-1.778-1.839-4.805-3.516-7.023-5.348c-0.575,4.998,0.758,11.52,5.025,14.287
		c1.383-1.238,3.175-2.08,4.872-2.9c1.308,2.779,0.982,4.37,3.517,5.471c1.605,0.699,4.891,0.115,6.697,0.478
		c7.059,1.424,6.402,0.959,11.389-3.379c3.637-3.164,6.525-6.004,11.049-5.744c4.344,0.248,8.131,2.445,12.349-1.004
		c1.728-1.412,2.313-3.359,4.224-4.734c1.757-1.266,4.479-1.752,6.402-3.113c3.862-2.73,4.199-7.236,7.5-9.664
		c1.66-1.22,3.836-1.304,5.352-2.339c3-2.049,6.867-5.047,9.671-7.524c5.718-5.047,1.215-8.494,3.979-13.984
		c0.107-0.215,0.059-1.152,0.074-1.425c6.132,0.792,12.719-7.038,17.048-10.561c4.642-3.777,11.147-7.574,16.899-9.502
		c5.645-1.891,10.767-3.428,17.474-2.514c3.834,0.523,5.418,2.551,9.028,3c3.164,0.395,5.89-1.252,8.933-1.564
		c-4.033-10.168-12.921-6.039-19.446-11.408c-6.141-5.051-12.195-11.602-19.426-14.463c0.924,6.525-9.836,5.922-14.074,8.537
		c-7.227,4.459-5.121,10.611,1.826,12.338c-1.149,3.951-6.691,4.348-9.838,6.547c-4.006,2.801-7.518,6.887-11.486,9.639
		c-2.816,1.951-6.297,4.925-9.502,5.998c-4.157,1.389-9.131,1.115-13.537,2.489c-4.322,1.347-8.111,3.132-12.098,5.024
		c-3.253,1.547-11.256,3.451-13.301,6.365c-3.202,4.561,5.408,9.143,9.535,9.885c4.375,0.789,8.367-2.963,11.736,1.65
		c-6.215-0.164-12.125,5.292-16.75,8.576c-6.901,4.902-8.496-1.584-14.512-5.082c-0.203,2.502-0.623,4.973-1.136,7.439
		c-5.608-1.633-7.182-4.135-13.351-3.92c-1.128,4.727-5.187,7.381-6.687,11.875c-3.276,0.558-5.731-0.793-8.413-1.926"/>
	<path fill="#FFFFFF" d="M224.122,353.858c3.823,2.57,12.488,0.822,17.424,1.078c0.227,0.805,0.23,2.072,0,2.873
		c-2.6,0.184-6.172,1.391-8.811,0.436c-2.602-0.941-3.914-3.809-6.613-4.387"/>
</g>
<g opacity="0.2">
	<path fill="none" stroke="#FFFFFF" stroke-width="3.3" stroke-miterlimit="10" stroke-dasharray="4" d="M689.479,226.722
		c-1.579,14.662,12.023,12,22.668,12c12.412,0,18.676,0.982,28.518,7.482c14.617,9.65,31.75,28.559,36.148,45.836
		c3.24,12.729,6.77,13.795-4.648,13.795"/>
	<path fill="none" stroke="#FFFFFF" stroke-width="3.3" stroke-miterlimit="10" stroke-dasharray="4" d="M772.498,305.835
		c14.229,0,20.987-1.676,34.98-1.113c7.825,0.312,33.098,4.781,30.551,17.217c-5.518,2.924-8.674,4.07-15.216,4.117"/>
	<path fill="none" stroke="#FFFFFF" stroke-width="3.3" stroke-miterlimit="10" stroke-dasharray="4" d="M826.165,326.502
		c25.277,0,67.71-7.704,67.833,27.667"/>
	<path fill="none" stroke="#FFFFFF" stroke-width="3.3" stroke-miterlimit="10" stroke-dasharray="4" d="M895.498,354.002
		c8.349-5.556,19.15-13.354,26.146-1.929c5.281,8.627,2.404,22.713,0.52,32c-4.801,23.646-11.66,47.191-14.016,72.148
		c-2.191,23.213,10.834,44.352,32.682,51.148c20.828,6.482,46.342,1.67,67.982,0.652c24.531-1.153,45.316-4.861,67.998-13.467
		c20.191-7.658,39.678-16.561,62.002-16.5c7.91,0.021,19.297,3.305,22.715,11.852c3.045,7.619-9.256,15.918-14.715,18.814"/>
	<path fill="none" stroke="#FFFFFF" stroke-width="3.3" stroke-miterlimit="10" stroke-dasharray="4" d="M1147.479,509.39
		c5.271-0.342,8.422-6.219,14-6c6.377,0.25,7.152,5.74,8.831,11.332c3.374,11.234,3.288,24.225,3.169,36.518
		c-0.494,51.369-50.312,75.17-80.65,108.117c-14.994,16.285-30.174,33.264-39.531,53.215c-4.811,10.258-5.014,13.021-11.799,21.931"
		/>
	<path fill="none" stroke="#FFFFFF" stroke-width="3.3" stroke-miterlimit="10" stroke-dasharray="4" d="M1040.998,734.752
		c0.346-5.342-5.367-8.007-7.352-12.973c-2.303-5.765-4.416-11.55-7.461-16.987c-7.785-13.906-15.67-27.779-24.65-40.914
		c-10.131-14.812-22.512-33.075-41.277-36.102c-8.252-1.33-16.92-1.916-24.611,2.111"/>
	<path fill="none" stroke="#FFFFFF" stroke-width="3.3" stroke-miterlimit="10" stroke-dasharray="4" d="M937.748,628.252
		c-0.82-8.729,0.758-15.1-3.102-23.862c-4.463-10.133-10.58-18.939-16.863-28.002c-12.867-18.561-27.812-38.596-47.623-48.987
		c-8.535-4.478-15.193-6.513-25.014-6.513"/>
	<path fill="none" stroke="#FFFFFF" stroke-width="3.3" stroke-miterlimit="10" stroke-dasharray="4" d="M848.146,521.388
		c-0.75-7.771-10.215-18.846-14-25.584c-5.732-10.203-12.269-21.414-21.528-28.43c-16.454-12.469-35.489-19.32-52.334-31.623
		c-1.989-1.453-4.289-3.107-6.138-4.363"/>
	<path fill="none" stroke="#FFFFFF" stroke-width="3.3" stroke-miterlimit="10" stroke-dasharray="4" d="M754.147,434.388
		c-2.416,1.379-3.141,13.35-3.512,16.889c-0.916,8.697,1.108,18.432-0.488,27.121c-1.699,9.237-9.482,18.197-19.123,17.99
		c-9.273-0.2-18.451-5.344-26.74-8.987c-13.584-5.974-24.377-12.142-35.16-22.513c-10.272-9.877-18.904-21.57-28.587-32
		c-7.851-8.457-15.734-16.924-23.39-25.637c-7.092-8.07-15.273-14.714-23.112-21.977c-4.888-4.529-10.862-6.625-15.55-10.339
		c-1.689-1.338-3.18-3.075-4.85-4.573c-10.309-9.248-19.633-19.688-29.991-29.086c-11.906-10.805-24.945-21.142-36.122-32.291
		c-5.81-5.795-9.878-13.882-15.876-19.098"/>
	<path fill="none" stroke="#FFFFFF" stroke-width="3.3" stroke-miterlimit="10" stroke-dasharray="4" d="M490.647,290.888
		c7.17,1.932,17.364,5.709,25,2.387c10.222-4.449,12.585-22.859,14.861-32.023c5.008-20.164,8.574-40.559,12.651-60.85
		c3.624-18.039,8.143-36.683,8.999-54.902c0.566-12.079,2.496-24.553,1.488-36.637c-0.746-8.934-5.137-11.971-11.649-17.193"/>
	<path fill="none" stroke="#FFFFFF" stroke-width="3.3" stroke-miterlimit="10" stroke-dasharray="4" d="M542.165,91.669
		c3.131,1.049,3.349,2.393,6.495,3.205c3.308,0.855,7.877,0.863,11.487,0.514c7.178-0.695,15.334-5.857,20.472-10.602
		c9.329-8.611,22.749-22.443,36.028-24.398"/>
	<path fill="none" stroke="#FFFFFF" stroke-width="3.3" stroke-miterlimit="10" stroke-dasharray="4" d="M614.647,61.388
		c-0.516,7.225,3.971,14.398,1.111,21.512c-2.811,6.984-9.342,10.453-10.5,18.488c-2.181,15.104,13.584,28.545,26.889,18.5"/>
	<path fill="none" stroke="#FFFFFF" stroke-width="3.3" stroke-miterlimit="10" stroke-dasharray="4" d="M631.647,120.388
		c-2.793,18.229,26.07,25.424,37.013,31.375c7.56,4.111,15.107,9.35,21.122,15.5c6.639,6.792,10.079,17.979,13.503,26.625
		c3.384,8.541,3.851,16.598,3.862,26c0.013,11.031-6.227,14-16.5,14"/>
	<path fill="none" stroke="#FFFFFF" stroke-width="3.3" stroke-miterlimit="10" stroke-dasharray="4" d="M493.998,290.502
		c-0.648,22.354,7.079,44.227,0.301,66.251c-7.837,25.467-21.038,49.83-34.05,72.752c-16.488,29.048-27.69,59.854-19.223,93.997
		c0.862,3.477,1.932,6.785,2.972,10"/>
	<path fill="none" stroke="#FFFFFF" stroke-width="3.3" stroke-miterlimit="10" stroke-dasharray="4" d="M690.998,234.502
		c-7.562,4.958-14.919,17.594-21.397,24.929c-10.238,11.594-21.195,22.274-28.357,36.272
		c-17.874,34.931-31.592,74.137-41.491,112.069c-10.625,40.714-22.352,87.716-46.957,122.706
		c-13.733,19.529-29.061,24.391-50.575,28.75c-12.937,2.621-38.761,8.543-51.223,1.273"/>
</g>
</svg>
